MIN=0	0	0	-0.1	0	0	
MAX=15	30	10	13	30	5	
SCALE=5	10	5	5	10	1	
DEC=1	2	2	2	2	2	
DEF="Time" t / s	"Voltage" U_A1 / V	"Voltage" U_B1 / V	"Collector Current" I_A / nA	"Acceleration Voltage" U_2 / V	"Frequency" f / Hz	
0	0.195	-0.03	-0.03	1.95	NAN	
0.161	0.045	-0.02	-0.02	0.45	NAN	
0.2	0.045	-0.035	-0.035	0.45	NAN	
0.3	0.09	-0.05	-0.05	0.9	NAN	
0.4	0.105	-0.02	-0.02	1.05	NAN	
0.5	0.12	-0.025	-0.025	1.2	NAN	
0.6	0.15	-0.015	-0.015	1.5	NAN	
0.7	0.18	-0.02	-0.02	1.8	NAN	
0.8	0.21	-0.015	-0.015	2.1	NAN	
0.9	0.27	0.065	0.065	2.7	NAN	
1	0.27	0	0	2.7	NAN	
1.186	0.3	-0.05	-0.05	3	NAN	
1.2	0.33	0.035	0.035	3.3	NAN	
1.3	0.345	0.075	0.075	3.45	NAN	
1.4	0.375	0.14	0.14	3.75	NAN	
1.5	0.405	0.255	0.255	4.05	NAN	
1.6	0.405	0.385	0.385	4.05	NAN	
1.7	0.435	0.455	0.455	4.35	NAN	
1.8	0.465	0.655	0.655	4.65	NAN	
1.9	0.495	0.655	0.655	4.95	NAN	
2	0.525	0.505	0.505	5.25	NAN	
2.199	0.57	0.235	0.235	5.7	NAN	
2.21	0.57	0.12	0.12	5.7	NAN	
2.3	0.6	0.075	0.075	6	NAN	
2.4	0.63	0.04	0.04	6.3	NAN	
2.5	0.66	0.03	0.03	6.6	NAN	
2.6	0.69	0.04	0.04	6.9	NAN	
2.7	0.705	0.07	0.07	7.05	NAN	
2.8	0.735	0.12	0.12	7.35	NAN	
2.9	0.75	0.205	0.205	7.5	NAN	
3	0.78	0.32	0.32	7.8	NAN	
3.213	0.945	1.25	1.25	9.45	NAN	
3.226	0.945	0.67	0.67	9.45	NAN	
3.3	0.915	0.89	0.89	9.15	NAN	
3.4	0.885	1.15	1.15	8.85	NAN	
3.5	0.915	1.53	1.53	9.15	NAN	
3.6	0.96	1.715	1.715	9.6	NAN	
3.7	0.975	1.85	1.85	9.75	NAN	
3.8	0.99	1.655	1.655	9.9	NAN	
3.9	1.02	1.225	1.225	10.2	NAN	
4	1.05	0.815	0.815	10.5	NAN	
4.229	1.11	0.075	0.075	11.1	NAN	
4.241	1.11	0.045	0.045	11.1	NAN	
4.3	1.11	0.115	0.115	11.1	NAN	
4.4	1.14	0.095	0.095	11.4	NAN	
4.5	1.17	0.135	0.135	11.7	NAN	
4.6	1.2	0.22	0.22	12	NAN	
4.7	1.23	0.345	0.345	12.3	NAN	
4.8	1.245	0.53	0.53	12.45	NAN	
4.9	1.275	0.735	0.735	12.75	NAN	
5	1.305	1.015	1.015	13.05	NAN	
5.1	1.335	1.335	1.335	13.35	NAN	
5.246	1.38	1.515	1.515	13.8	NAN	
5.3	1.38	2.11	2.11	13.8	NAN	
5.4	1.41	2.555	2.555	14.1	NAN	
5.5	1.44	2.83	2.83	14.4	NAN	
5.6	1.455	3.15	3.15	14.55	NAN	
5.7	1.485	2.765	2.765	14.85	NAN	
5.8	1.515	2.295	2.295	15.15	NAN	
5.9	1.53	1.73	1.73	15.3	NAN	
6	1.56	1.15	1.15	15.6	NAN	
6.1	1.59	0.685	0.685	15.9	NAN	
6.256	1.635	0.585	0.585	16.35	NAN	
6.3	1.65	0.34	0.34	16.5	NAN	
6.4	1.665	0.36	0.36	16.65	NAN	
6.5	1.695	0.535	0.535	16.95	NAN	
6.6	1.725	0.6	0.6	17.25	NAN	
6.7	1.755	0.82	0.82	17.55	NAN	
6.8	1.785	1.03	1.03	17.85	NAN	
6.9	1.785	1.475	1.475	17.85	NAN	
7	1.815	1.92	1.92	18.15	NAN	
7.1	1.845	2.415	2.415	18.45	NAN	
7.27	1.905	3.335	3.335	19.05	NAN	
7.3	1.905	3.55	3.55	19.05	NAN	
7.4	1.92	4.035	4.035	19.2	NAN	
7.5	1.95	4.33	4.33	19.5	NAN	
7.6	1.98	4.185	4.185	19.8	NAN	
7.7	2.01	3.785	3.785	20.1	NAN	
7.8	2.025	3.12	3.12	20.25	NAN	
7.9	2.055	2.375	2.375	20.55	NAN	
8	2.085	1.72	1.72	20.85	NAN	
8.1	2.1	1.335	1.335	21	NAN	
8.286	2.16	0.47	0.47	21.6	NAN	
8.3	2.16	0.815	0.815	21.6	NAN	
8.4	2.175	0.895	0.895	21.75	NAN	
8.5	2.205	0.925	0.925	22.05	NAN	
8.6	2.235	1.13	1.13	22.35	NAN	
8.7	2.265	1.44	1.44	22.65	NAN	
8.8	2.28	1.82	1.82	22.8	NAN	
8.9	2.31	2.315	2.315	23.1	NAN	
9	2.34	2.915	2.915	23.4	NAN	
9.1	2.37	3.595	3.595	23.7	NAN	
9.298	2.415	5.095	5.095	24.15	NAN	
9.311	2.415	5.25	5.25	24.15	NAN	
9.4	2.43	5.635	5.635	24.3	NAN	
9.5	2.46	5.78	5.78	24.6	NAN	
9.6	2.49	5.835	5.835	24.9	NAN	
9.7	2.52	5.385	5.385	25.2	NAN	
9.8	2.535	4.78	4.78	25.35	NAN	
9.9	2.565	4.01	4.01	25.65	NAN	
10	2.595	3.31	3.31	25.95	NAN	
10.1	2.625	2.715	2.715	26.25	NAN	
10.314	2.67	2.305	2.305	26.7	NAN	
10.325	2.67	1.675	1.675	26.7	NAN	
10.4	2.7	1.98	1.98	27	NAN	
10.5	2.73	2.05	2.05	27.3	NAN	
10.6	2.76	2.3	2.3	27.6	NAN	
10.7	2.775	2.75	2.75	27.75	NAN	
10.8	2.79	3.04	3.04	27.9	NAN	
10.9	2.82	3.865	3.865	28.2	NAN	
11	2.85	4.675	4.675	28.5	NAN	
11.1	2.88	5.63	5.63	28.8	NAN	
11.326	2.94	7.455	7.455	29.4	NAN	
11.339	2.94	7.79	7.79	29.4	NAN	
11.4	2.955	7.995	7.995	29.55	NAN	
11.5	2.985	8.295	8.295	29.85	NAN	
11.6	3.015	8.245	8.245	30.15	NAN	
11.7	3.03	7.835	7.835	30.3	NAN	
11.8	3.06	7.205	7.205	30.6	NAN	
11.9	3.09	6.23	6.23	30.9	NAN	
12	3.105	5.7	5.7	31.05	NAN	
12.1	3.135	4.78	4.78	31.35	NAN	
12.2	3.15	4.55	4.55	31.5	NAN	
12.344	3.195	3.88	3.88	31.95	NAN	
12.4	3.195	4.28	4.28	31.95	NAN	
12.5	3.195	4.3	4.3	31.95	NAN	
12.6	3.195	4.295	4.295	31.95	NAN	
12.7	3.195	4.28	4.28	31.95	NAN	
12.8	3.195	4.31	4.31	31.95	NAN	
12.9	3.195	4.31	4.31	31.95	NAN	
13	3.195	4.325	4.325	31.95	NAN	
13.1	3.195	4.29	4.29	31.95	NAN	
13.2	3.195	4.055	4.055	31.95	NAN	
13.355	3.195	4.51	4.51	31.95	NAN	
13.4	3.195	4.325	4.325	31.95	NAN	
13.5	3.195	4.285	4.285	31.95	NAN	
13.6	3.195	4.27	4.27	31.95	NAN	
13.7	3.195	4.44	4.44	31.95	NAN	
13.8	3.195	4.33	4.33	31.95	NAN	
13.9	3.195	4.335	4.335	31.95	NAN	
14	3.195	4.285	4.285	31.95	NAN	
14.1	3.195	4.295	4.295	31.95	NAN	
14.2	3.195	4.325	4.325	31.95	NAN	
14.368	3.195	4.325	4.325	31.95	NAN	
14.4	3.195	4.32	4.32	31.95	NAN	
14.5	3.195	4.31	4.31	31.95	NAN	
14.6	3.195	4.295	4.295	31.95	NAN	
14.7	3.195	4.305	4.305	31.95	NAN	
14.8	3.195	4.275	4.275	31.95	NAN	
14.9	3.195	4.27	4.27	31.95	NAN	
15	3.195	4.295	4.295	31.95	NAN	
