MIN=0	0	0	-0.1	0	0	
MAX=15	30	10	13	30	5	
SCALE=5	10	5	5	10	1	
DEC=1	2	2	2	2	2	
DEF="Time" t / s	"Voltage" U_A1 / V	"Voltage" U_B1 / V	"Collector Current" I_A / nA	"Acceleration Voltage" U_2 / V	"Frequency" f / Hz	
0	0.12	0.055	0.055	1.2	NAN	
0.1	0.015	0.225	0.225	0.15	NAN	
0.2	0.06	1.26	1.26	0.6	NAN	
0.3	0.06	0.22	0.22	0.6	NAN	
0.4	0.075	0.18	0.18	0.75	NAN	
0.5	0.105	0.2	0.2	1.05	NAN	
0.6	0.135	0.195	0.195	1.35	NAN	
0.7	0.165	0.18	0.18	1.65	NAN	
0.8	0.195	0.18	0.18	1.95	NAN	
0.9	0.21	0.2	0.2	2.1	NAN	
1	0.24	0.2	0.2	2.4	NAN	
1.1	0.27	0.215	0.215	2.7	NAN	
1.2	0.3	0.235	0.235	3	NAN	
1.3	0.33	0.265	0.265	3.3	NAN	
1.4	0.345	0.305	0.305	3.45	NAN	
1.5	0.375	0.36	0.36	3.75	NAN	
1.6	0.405	0.41	0.41	4.05	NAN	
1.7	0.42	0.49	0.49	4.2	NAN	
1.8	0.45	0.545	0.545	4.5	NAN	
1.9	0.48	0.535	0.535	4.8	NAN	
2	0.495	0.465	0.465	4.95	NAN	
2.1	0.525	0.38	0.38	5.25	NAN	
2.2	0.555	0.315	0.315	5.55	NAN	
2.3	0.585	0.28	0.28	5.85	NAN	
2.4	0.615	0.245	0.245	6.15	NAN	
2.5	0.63	0.24	0.24	6.3	NAN	
2.6	0.66	0.245	0.245	6.6	NAN	
2.7	0.69	0.24	0.24	6.9	NAN	
2.8	0.72	0.26	0.26	7.2	NAN	
2.9	0.75	0.305	0.305	7.5	NAN	
3	0.75	0.345	0.345	7.5	NAN	
3.1	0.78	0.42	0.42	7.8	NAN	
3.2	0.81	0.505	0.505	8.1	NAN	
3.3	0.84	0.6	0.6	8.4	NAN	
3.4	0.87	0.715	0.715	8.7	NAN	
3.5	0.885	0.845	0.845	8.85	NAN	
3.6	0.915	0.98	0.98	9.15	NAN	
3.7	0.945	1.035	1.035	9.45	NAN	
3.8	0.975	0.895	0.895	9.75	NAN	
3.9	1.005	0.725	0.725	10.05	NAN	
4	1.02	0.525	0.525	10.2	NAN	
4.1	1.05	0.45	0.45	10.5	NAN	
4.2	1.08	0.26	0.26	10.8	NAN	
4.3	1.11	0.3	0.3	11.1	NAN	
4.4	1.125	0.19	0.19	11.25	NAN	
4.5	1.14	0.27	0.27	11.4	NAN	
4.6	1.17	0.22	0.22	11.7	NAN	
4.7	1.2	0.32	0.32	12	NAN	
4.8	1.23	0.315	0.315	12.3	NAN	
4.9	1.26	0.4	0.4	12.6	NAN	
5	1.275	0.505	0.505	12.75	NAN	
5.1	1.305	0.64	0.64	13.05	NAN	
5.2	1.335	0.785	0.785	13.35	NAN	
5.3	1.365	0.965	0.965	13.65	NAN	
5.4	1.395	1.225	1.225	13.95	NAN	
5.5	1.41	1.345	1.345	14.1	NAN	
5.6	1.44	1.505	1.505	14.4	NAN	
5.7	1.455	1.42	1.42	14.55	NAN	
5.8	1.485	1.25	1.25	14.85	NAN	
5.9	1.515	0.84	0.84	15.15	NAN	
6	1.53	0.665	0.665	15.3	NAN	
6.1	1.56	0.46	0.46	15.6	NAN	
6.2	1.59	0.295	0.295	15.9	NAN	
6.3	1.62	0.215	0.215	16.2	NAN	
6.4	1.65	0.26	0.26	16.5	NAN	
6.5	1.665	0.28	0.28	16.65	NAN	
6.6	1.695	0.33	0.33	16.95	NAN	
6.7	1.725	0.415	0.415	17.25	NAN	
6.8	1.755	0.585	0.585	17.55	NAN	
6.9	1.785	0.75	0.75	17.85	NAN	
7	1.785	0.845	0.845	17.85	NAN	
7.1	1.815	1.175	1.175	18.15	NAN	
7.2	1.845	1.37	1.37	18.45	NAN	
7.3	1.875	1.59	1.59	18.75	NAN	
7.4	1.905	1.83	1.83	19.05	NAN	
7.5	1.92	2.035	2.035	19.2	NAN	
7.6	1.95	2.01	2.01	19.5	NAN	
7.7	1.98	1.795	1.795	19.8	NAN	
7.8	2.01	1.595	1.595	20.1	NAN	
7.9	2.025	1.23	1.23	20.25	NAN	
8	2.055	0.94	0.94	20.55	NAN	
8.1	2.085	0.64	0.64	20.85	NAN	
8.2	2.115	0.545	0.545	21.15	NAN	
8.3	2.13	0.405	0.405	21.3	NAN	
8.4	2.145	0.525	0.525	21.45	NAN	
8.5	2.175	0.39	0.39	21.75	NAN	
8.6	2.205	0.53	0.53	22.05	NAN	
8.7	2.235	0.57	0.57	22.35	NAN	
8.8	2.265	0.8	0.8	22.65	NAN	
8.9	2.28	0.93	0.93	22.8	NAN	
9	2.31	1.26	1.26	23.1	NAN	
9.1	2.34	1.565	1.565	23.4	NAN	
9.2	2.37	1.795	1.795	23.7	NAN	
9.3	2.4	2.125	2.125	24	NAN	
9.4	2.415	2.38	2.38	24.15	NAN	
9.5	2.445	2.62	2.62	24.45	NAN	
9.6	2.46	2.495	2.495	24.6	NAN	
9.7	2.49	2.35	2.35	24.9	NAN	
9.8	2.52	2.15	2.15	25.2	NAN	
9.9	2.535	1.82	1.82	25.35	NAN	
10	2.565	1.385	1.385	25.65	NAN	
10.1	2.595	1.095	1.095	25.95	NAN	
10.2	2.625	0.835	0.835	26.25	NAN	
10.3	2.64	0.775	0.775	26.4	NAN	
10.4	2.67	0.78	0.78	26.7	NAN	
10.5	2.7	0.8	0.8	27	NAN	
10.6	2.73	0.87	0.87	27.3	NAN	
10.7	2.76	1.015	1.015	27.6	NAN	
10.8	2.775	1.195	1.195	27.75	NAN	
10.9	2.79	1.41	1.41	27.9	NAN	
11	2.82	1.885	1.885	28.2	NAN	
11.1	2.85	2.275	2.275	28.5	NAN	
11.2	2.88	2.73	2.73	28.8	NAN	
11.3	2.895	3.155	3.155	28.95	NAN	
11.4	2.925	3.47	3.47	29.25	NAN	
11.5	2.955	3.61	3.61	29.55	NAN	
11.6	2.985	3.625	3.625	29.85	NAN	
11.7	3.015	3.42	3.42	30.15	NAN	
11.8	3.03	3.005	3.005	30.3	NAN	
11.9	3.06	2.62	2.62	30.6	NAN	
12	3.09	2.325	2.325	30.9	NAN	
12.1	3.12	2.14	2.14	31.2	NAN	
12.2	3.135	1.67	1.67	31.35	NAN	
12.3	3.15	1.56	1.56	31.5	NAN	
12.4	3.18	1.455	1.455	31.8	NAN	
12.5	3.195	1.42	1.42	31.95	NAN	
12.6	3.195	1.405	1.405	31.95	NAN	
12.7	3.195	1.35	1.35	31.95	NAN	
12.8	3.195	1.415	1.415	31.95	NAN	
12.9	3.195	1.405	1.405	31.95	NAN	
13	3.195	1.4	1.4	31.95	NAN	
13.1	3.195	1.325	1.325	31.95	NAN	
13.2	3.195	1.395	1.395	31.95	NAN	
13.3	3.195	1.345	1.345	31.95	NAN	
13.4	3.195	1.39	1.39	31.95	NAN	
13.5	3.195	1.4	1.4	31.95	NAN	
13.6	3.195	1.395	1.395	31.95	NAN	
13.7	3.195	1.39	1.39	31.95	NAN	
13.8	3.195	1.39	1.39	31.95	NAN	
13.9	3.195	1.38	1.38	31.95	NAN	
14	3.195	1.315	1.315	31.95	NAN	
14.1	3.195	1.36	1.36	31.95	NAN	
14.2	3.195	1.365	1.365	31.95	NAN	
14.3	3.195	1.365	1.365	31.95	NAN	
14.4	3.195	1.36	1.36	31.95	NAN	
14.5	3.195	1.365	1.365	31.95	NAN	
14.6	3.195	1.37	1.37	31.95	NAN	
14.7	3.195	1.365	1.365	31.95	NAN	
14.8	3.195	1.39	1.39	31.95	NAN	
14.9	3.195	1.365	1.365	31.95	NAN	
15	3.195	1.36	1.36	31.95	NAN	
